Subtree: HTML (HTML)
HtmlFile:mojoParserTest.ep
  PsiElement(HTML_DOCUMENT)
    PsiElement(XML_PROLOG)
      PsiElement(XML_DOCTYPE)
        PsiElement(Mojolicious: MOJO_OUTER_ELEMENT_TYPE)('% use Time::Piece;\n')
        XmlToken:XML_DOCTYPE_START('<!DOCTYPE')
        XmlToken:XML_NAME('html')
        XmlToken:XML_DOCTYPE_END('>')
    HtmlTag:html
      XmlToken:XML_START_TAG_START('<')
      XmlToken:XML_NAME('html')
      XmlToken:XML_TAG_END('>')
      XmlText
      HtmlTag:head
        XmlToken:XML_START_TAG_START('<')
        XmlToken:XML_NAME('head')
        XmlToken:XML_TAG_END('>')
        HtmlTag:title
          XmlToken:XML_START_TAG_START('<')
          XmlToken:XML_NAME('title')
          XmlToken:XML_TAG_END('>')
          XmlText
            XmlToken:XML_DATA_CHARACTERS('Simple')
          XmlToken:XML_END_TAG_START('</')
          XmlToken:XML_NAME('title')
          XmlToken:XML_TAG_END('>')
        XmlToken:XML_END_TAG_START('</')
        XmlToken:XML_NAME('head')
        XmlToken:XML_TAG_END('>')
      PsiElement(Mojolicious: MOJO_OUTER_ELEMENT_TYPE)('\n% my $now = localtime;\n  ')
      HtmlTag:body
        XmlToken:XML_START_TAG_START('<')
        XmlToken:XML_NAME('body')
        XmlToken:XML_TAG_END('>')
        XmlText
          XmlToken:XML_DATA_CHARACTERS('Time:')
        PsiElement(Mojolicious: MOJO_OUTER_ELEMENT_TYPE)(' <%= $now->hms %>')
        XmlToken:XML_END_TAG_START('</')
        XmlToken:XML_NAME('body')
        XmlToken:XML_TAG_END('>')
      XmlText
      XmlToken:XML_END_TAG_START('</')
      XmlToken:XML_NAME('html')
      XmlToken:XML_TAG_END('>')
    HtmlTag:html
      XmlToken:XML_START_TAG_START('<')
      XmlToken:XML_NAME('html')
      XmlToken:XML_TAG_END('>')
      XmlText
      HtmlTag:head
        XmlToken:XML_START_TAG_START('<')
        XmlToken:XML_NAME('head')
        XmlToken:XML_TAG_END('>')
        HtmlTag:title
          XmlToken:XML_START_TAG_START('<')
          XmlToken:XML_NAME('title')
          XmlToken:XML_TAG_END('>')
          PsiElement(Mojolicious: MOJO_OUTER_ELEMENT_TYPE)('<%= $title #this is a titile %>')
          XmlToken:XML_END_TAG_START('</')
          XmlToken:XML_NAME('title')
          XmlToken:XML_TAG_END('>')
        XmlToken:XML_END_TAG_START('</')
        XmlToken:XML_NAME('head')
        XmlToken:XML_TAG_END('>')
      XmlText
      HtmlTag:body
        XmlToken:XML_START_TAG_START('<')
        XmlToken:XML_NAME('body')
        XmlToken:XML_TAG_END('>')
        XmlText
          XmlToken:XML_DATA_CHARACTERS('test')
          XmlToken:XML_DATA_CHARACTERS('123')
          XmlToken:XML_DATA_CHARACTERS('foo')
          PsiElement(Mojolicious: MOJO_OUTER_ELEMENT_TYPE)(' <% my $i = $num + 2; %>\n% for (1 .. 23) {\n    ')
          XmlToken:XML_DATA_CHARACTERS('*')
          XmlToken:XML_DATA_CHARACTERS('some')
          XmlToken:XML_DATA_CHARACTERS('text')
        PsiElement(Mojolicious: MOJO_OUTER_ELEMENT_TYPE)(' <%= $i++ %>\n% }\n  ')
        XmlToken:XML_END_TAG_START('</')
        XmlToken:XML_NAME('body')
        XmlToken:XML_TAG_END('>')
      XmlText
      XmlToken:XML_END_TAG_START('</')
      XmlToken:XML_NAME('html')
      XmlToken:XML_TAG_END('>')
    PsiElement(Mojolicious: MOJO_OUTER_ELEMENT_TYPE)('\n\n% use Mojo::ByteStream 'b';\n<%= b('<div>excluded!</div>') %>\n\n<% for (1 .. 3) { # some comment is accepatble %>\n    <%= 'Trim all whitespace characters around this expression' =%>\n<% } %>\n\n')
    XmlToken:XML_DATA_CHARACTERS('This')
    XmlToken:XML_DATA_CHARACTERS('is')
    PsiElement(Mojolicious: MOJO_OUTER_ELEMENT_TYPE)(' <%= 1 + 1 %> ')
    XmlToken:XML_DATA_CHARACTERS('a\')
    XmlToken:XML_DATA_CHARACTERS('single')
    XmlToken:XML_DATA_CHARACTERS('line')
    XmlToken:XML_DATA_CHARACTERS('This')
    XmlToken:XML_DATA_CHARACTERS('will')
    PsiElement(Mojolicious: MOJO_OUTER_ELEMENT_TYPE)(' <%= 1 + 1 %> ')
    XmlToken:XML_DATA_CHARACTERS('result\\')
    XmlToken:XML_DATA_CHARACTERS('in')
    XmlToken:XML_DATA_CHARACTERS('multiple\\')
    XmlToken:XML_DATA_CHARACTERS('lines')
    PsiElement(Mojolicious: MOJO_OUTER_ELEMENT_TYPE)('\n\n<% my $block = begin %>\n    <% my $name = shift; =%>\n  ')
    XmlToken:XML_DATA_CHARACTERS('Hello')
    PsiElement(Mojolicious: MOJO_OUTER_ELEMENT_TYPE)(' <%= $name %>')
    XmlToken:XML_DATA_CHARACTERS('.')
    PsiElement(Mojolicious: MOJO_OUTER_ELEMENT_TYPE)('\n<% end %>\n<%= $block->('Baerbel') %>')
    XmlToken:XML_DATA_CHARACTERS('spaces')
    XmlToken:XML_DATA_CHARACTERS('should')
    XmlToken:XML_DATA_CHARACTERS('be')
    XmlToken:XML_DATA_CHARACTERS('after')
    PsiElement(Mojolicious: MOJO_OUTER_ELEMENT_TYPE)('\n\n\n\n<%= $block->('Wolfgang') %>\n\n\n')
    XmlToken:XML_DATA_CHARACTERS('non-spaces')
    XmlToken:XML_DATA_CHARACTERS('spaces')
    XmlToken:XML_DATA_CHARACTERS('should')
    XmlToken:XML_DATA_CHARACTERS('be')
    XmlToken:XML_DATA_CHARACTERS('before')
    XmlToken:XML_DATA_CHARACTERS('some')
    XmlToken:XML_DATA_CHARACTERS('%')
    XmlToken:XML_DATA_CHARACTERS('<')
    XmlToken:XML_DATA_CHARACTERS('unparen')
    XmlToken:XML_DATA_CHARACTERS('>')
    PsiElement(Mojolicious: MOJO_OUTER_ELEMENT_TYPE)('\n\n<%= $block->('Wolfgang') %>\n% my $block = begin\n<% say 'hi'; %>\n% my $name = shift;\n  ')
    XmlToken:XML_DATA_CHARACTERS('Hello')
    PsiElement(Mojolicious: MOJO_OUTER_ELEMENT_TYPE)(' <%= $name %>')
    XmlToken:XML_DATA_CHARACTERS('.')
    PsiElement(Mojolicious: MOJO_OUTER_ELEMENT_TYPE)('\n% end\n        %= $block->('Baerbel')\n%= $block->('Wolfgang')\n\n% my ($foo, $bar) = @_;\n% my $x = shift;\n')
    XmlToken:XML_DATA_CHARACTERS('test')
    XmlToken:XML_DATA_CHARACTERS('123')
    PsiElement(Mojolicious: MOJO_OUTER_ELEMENT_TYPE)(' <%= $foo %>\n\n<% my $block = begin %>\n  ')
    XmlToken:XML_DATA_CHARACTERS('Some')
    XmlToken:XML_DATA_CHARACTERS('data!')
    PsiElement(Mojolicious: MOJO_OUTER_ELEMENT_TYPE)('\n<% end %>\n\n        <%== $foo %>\n\n<%= $foo %>\n\n<%%')
    XmlToken:XML_DATA_CHARACTERS('my')
    XmlToken:XML_DATA_CHARACTERS('$foo')
    XmlToken:XML_DATA_CHARACTERS('=')
    XmlToken:XML_DATA_CHARACTERS('23;')
    XmlToken:XML_DATA_CHARACTERS('%>')
  PsiElement(Mojolicious: MOJO_OUTER_ELEMENT_TYPE)('\n\n<%\n    say <<EOM;\n    this is a text\nEOM\n\n=pod\n\nSome documentation here\n\n=cut\n\n\n%>')
--------------------------------------------------------------------------------
Subtree: Mojolicious Perl (Mojolicious Perl)
Mojolicious Perl5 Template
  PsiComment(Mojolicious: %)('%')
  PerlUseStatementElement(USE_STATEMENT)
    PsiElement(Perl5: use)('use')
    PerlNamespaceElementImpl(Perl5: package::name)('Time::Piece')
    PsiElement(Perl5: ;)(';')
  PsiComment(Mojolicious: MOJO_TEMPLATE_BLOCK_HTML)('<!DOCTYPE html>\n<html>\n  <head><title>Simple</title></head>')
  PsiComment(Mojolicious: %)('%')
  PsiPerlStatementImpl(Perl5: STATEMENT)
    PsiPerlAssignExprImpl(Perl5: ASSIGN_EXPR)
      PsiPerlVariableDeclarationLexicalImpl(Perl5: VARIABLE_DECLARATION_LEXICAL)
        PsiElement(Perl5: my)('my')
        PsiPerlVariableDeclarationElementImpl(VARIABLE_DECLARATION_ELEMENT)
          PsiPerlScalarVariableImpl(Perl5: SCALAR_VARIABLE)
            PsiElement(Perl5: $$)('$')
            PerlVariableNameElementImpl(Perl5: SCALAR_NAME)('now')
      PsiElement(Perl5: =)('=')
      PsiPerlSubCallImpl(SUB_CALL)
        PsiPerlMethodImpl(Perl5: METHOD)
          PerlSubNameElementImpl(Perl5: unary)('localtime')
    PsiElement(Perl5: ;)(';')
  PsiComment(Mojolicious: MOJO_TEMPLATE_BLOCK_HTML)('<body>Time:')
  PsiComment(Mojolicious: <%=)('<%=')
  PsiPerlStatementImpl(Perl5: STATEMENT)
    PsiPerlDerefExprImpl(Perl5: DEREF_EXPR)
      PsiPerlScalarVariableImpl(Perl5: SCALAR_VARIABLE)
        PsiElement(Perl5: $$)('$')
        PerlVariableNameElementImpl(Perl5: SCALAR_NAME)('now')
      PsiElement(Perl5: ->)('->')
      PsiPerlSubCallImpl(SUB_CALL)
        PsiPerlMethodImpl(Perl5: METHOD)
          PerlSubNameElementImpl(Perl5: subname)('hms')
    PsiElement(Mojolicious: %>)('%>')
  PsiComment(Mojolicious: MOJO_TEMPLATE_BLOCK_HTML)('</body>\n</html>\n\n<html>\n  <head><title>')
  PsiComment(Mojolicious: <%=)('<%=')
  PsiPerlStatementImpl(Perl5: STATEMENT)
    PsiPerlScalarVariableImpl(Perl5: SCALAR_VARIABLE)
      PsiElement(Perl5: $$)('$')
      PerlVariableNameElementImpl(Perl5: SCALAR_NAME)('title')
    PsiComment(Perl5: COMMENT_LINE)('#this is a titile ')
    PsiElement(Mojolicious: %>)('%>')
  PsiComment(Mojolicious: MOJO_TEMPLATE_BLOCK_HTML)('</title></head>\n  <body>\n    test 123\n    foo')
  PsiComment(Mojolicious: <%)('<%')
  PsiPerlStatementImpl(Perl5: STATEMENT)
    PsiPerlAssignExprImpl(Perl5: ASSIGN_EXPR)
      PsiPerlVariableDeclarationLexicalImpl(Perl5: VARIABLE_DECLARATION_LEXICAL)
        PsiElement(Perl5: my)('my')
        PsiPerlVariableDeclarationElementImpl(VARIABLE_DECLARATION_ELEMENT)
          PsiPerlScalarVariableImpl(Perl5: SCALAR_VARIABLE)
            PsiElement(Perl5: $$)('$')
            PerlVariableNameElementImpl(Perl5: SCALAR_NAME)('i')
      PsiElement(Perl5: =)('=')
      PsiPerlAddExprImpl(Perl5: ADD_EXPR)
        PsiPerlScalarVariableImpl(Perl5: SCALAR_VARIABLE)
          PsiElement(Perl5: $$)('$')
          PerlVariableNameElementImpl(Perl5: SCALAR_NAME)('num')
        PsiElement(Perl5: +)('+')
        PsiPerlNumberConstantImpl(Perl5: NUMBER_CONSTANT)
          PsiElement(Perl5: NUMBER)('2')
    PsiElement(Perl5: ;)(';')
  PsiComment(Mojolicious: %>)('%>')
  PsiComment(Mojolicious: %)('%')
  PsiPerlForeachCompoundImpl(Perl5: FOREACH_COMPOUND)
    PsiElement(Perl5: for)('for')
    PsiPerlConditionExprImpl(Perl5: CONDITION_EXPR)
      PsiElement(Perl5: ()('(')
      PsiPerlFlipflopExprImpl(Perl5: FLIPFLOP_EXPR)
        PsiPerlNumberConstantImpl(Perl5: NUMBER_CONSTANT)
          PsiElement(Perl5: NUMBER)('1')
        PsiElement(Perl5: ..)('..')
        PsiPerlNumberConstantImpl(Perl5: NUMBER_CONSTANT)
          PsiElement(Perl5: NUMBER)('23')
      PsiElement(Perl5: ))(')')
    PsiPerlBlockImpl(Perl5: BLOCK)
      PsiElement(Perl5: {)('{')
      PsiComment(Mojolicious: MOJO_TEMPLATE_BLOCK_HTML)('* some text')
      PsiComment(Mojolicious: <%=)('<%=')
      PsiPerlStatementImpl(Perl5: STATEMENT)
        PsiPerlSuffPpExprImpl(Perl5: SUFF_PP_EXPR)
          PsiPerlScalarVariableImpl(Perl5: SCALAR_VARIABLE)
            PsiElement(Perl5: $$)('$')
            PerlVariableNameElementImpl(Perl5: SCALAR_NAME)('i')
          PsiElement(Perl5: ++)('++')
        PsiElement(Mojolicious: %>)('%>')
      PsiComment(Mojolicious: %)('%')
      PsiElement(Perl5: })('}')
  PsiComment(Mojolicious: MOJO_TEMPLATE_BLOCK_HTML)('</body>\n</html>')
  PsiComment(Mojolicious: %)('%')
  PerlUseStatementElement(USE_STATEMENT)
    PsiElement(Perl5: use)('use')
    PerlNamespaceElementImpl(Perl5: package::name)('Mojo::ByteStream')
    PsiPerlStringSqImpl(Perl5: STRING_SQ)
      PsiElement(Perl5: QUOTE_SINGLE_OPEN)(''')
      PerlStringContentElementImpl(Perl5: STRING_CONTENT)('b')
      PsiElement(Perl5: QUOTE_SINGLE_CLOSE)(''')
    PsiElement(Perl5: ;)(';')
  PsiComment(Mojolicious: <%=)('<%=')
  PsiPerlStatementImpl(Perl5: STATEMENT)
    PsiPerlSubCallImpl(SUB_CALL)
      PsiPerlMethodImpl(Perl5: METHOD)
        PerlSubNameElementImpl(Perl5: subname)('b')
      PsiPerlParenthesisedCallArgumentsImpl(Perl5: PARENTHESISED_CALL_ARGUMENTS)
        PsiElement(Perl5: ()('(')
        PsiPerlStringSqImpl(Perl5: STRING_SQ)
          PsiElement(Perl5: QUOTE_SINGLE_OPEN)(''')
          PerlStringContentElementImpl(Perl5: STRING_CONTENT)('<div>excluded!</div>')
          PsiElement(Perl5: QUOTE_SINGLE_CLOSE)(''')
        PsiElement(Perl5: ))(')')
    PsiElement(Mojolicious: %>)('%>')
  PsiComment(Mojolicious: <%)('<%')
  PsiPerlForeachCompoundImpl(Perl5: FOREACH_COMPOUND)
    PsiElement(Perl5: for)('for')
    PsiPerlConditionExprImpl(Perl5: CONDITION_EXPR)
      PsiElement(Perl5: ()('(')
      PsiPerlFlipflopExprImpl(Perl5: FLIPFLOP_EXPR)
        PsiPerlNumberConstantImpl(Perl5: NUMBER_CONSTANT)
          PsiElement(Perl5: NUMBER)('1')
        PsiElement(Perl5: ..)('..')
        PsiPerlNumberConstantImpl(Perl5: NUMBER_CONSTANT)
          PsiElement(Perl5: NUMBER)('3')
      PsiElement(Perl5: ))(')')
    PsiPerlBlockImpl(Perl5: BLOCK)
      PsiElement(Perl5: {)('{')
      PsiComment(Perl5: COMMENT_LINE)('# some comment is accepatble ')
      PsiComment(Mojolicious: %>)('%>')
      PsiComment(Mojolicious: <%=)('<%=')
      PsiPerlStatementImpl(Perl5: STATEMENT)
        PsiPerlStringSqImpl(Perl5: STRING_SQ)
          PsiElement(Perl5: QUOTE_SINGLE_OPEN)(''')
          PerlStringContentElementImpl(Perl5: STRING_CONTENT)('Trim all whitespace characters around this expression')
          PsiElement(Perl5: QUOTE_SINGLE_CLOSE)(''')
        PsiElement(Mojolicious: %>)('=%>')
      PsiComment(Mojolicious: <%)('<%')
      PsiElement(Perl5: })('}')
  PsiComment(Mojolicious: %>)('%>')
  PsiComment(Mojolicious: MOJO_TEMPLATE_BLOCK_HTML)('This is')
  PsiComment(Mojolicious: <%=)('<%=')
  PsiPerlStatementImpl(Perl5: STATEMENT)
    PsiPerlAddExprImpl(Perl5: ADD_EXPR)
      PsiPerlNumberConstantImpl(Perl5: NUMBER_CONSTANT)
        PsiElement(Perl5: NUMBER)('1')
      PsiElement(Perl5: +)('+')
      PsiPerlNumberConstantImpl(Perl5: NUMBER_CONSTANT)
        PsiElement(Perl5: NUMBER)('1')
    PsiElement(Mojolicious: %>)('%>')
  PsiComment(Mojolicious: MOJO_TEMPLATE_BLOCK_HTML)('a\\nsingle line\n\nThis will')
  PsiComment(Mojolicious: <%=)('<%=')
  PsiPerlStatementImpl(Perl5: STATEMENT)
    PsiPerlAddExprImpl(Perl5: ADD_EXPR)
      PsiPerlNumberConstantImpl(Perl5: NUMBER_CONSTANT)
        PsiElement(Perl5: NUMBER)('1')
      PsiElement(Perl5: +)('+')
      PsiPerlNumberConstantImpl(Perl5: NUMBER_CONSTANT)
        PsiElement(Perl5: NUMBER)('1')
    PsiElement(Mojolicious: %>)('%>')
  PsiComment(Mojolicious: MOJO_TEMPLATE_BLOCK_HTML)('result\\\nin multiple\\\nlines')
  PsiComment(Mojolicious: <%)('<%')
  PsiPerlStatementImpl(Perl5: STATEMENT)
    PsiPerlAssignExprImpl(Perl5: ASSIGN_EXPR)
      PsiPerlVariableDeclarationLexicalImpl(Perl5: VARIABLE_DECLARATION_LEXICAL)
        PsiElement(Perl5: my)('my')
        PsiPerlVariableDeclarationElementImpl(VARIABLE_DECLARATION_ELEMENT)
          PsiPerlScalarVariableImpl(Perl5: SCALAR_VARIABLE)
            PsiElement(Perl5: $$)('$')
            PerlVariableNameElementImpl(Perl5: SCALAR_NAME)('block')
      PsiElement(Perl5: =)('=')
      PsiPerlSubExprImpl(Perl5: SUB_EXPR)
        PsiElement(Mojolicious: begin)('begin')
        PsiPerlBlockBracelessImpl(Perl5: BLOCK_BRACELESS)
          PsiComment(Mojolicious: %>)('%>')
          PsiComment(Mojolicious: <%)('<%')
          PsiPerlStatementImpl(Perl5: STATEMENT)
            PsiPerlAssignExprImpl(Perl5: ASSIGN_EXPR)
              PsiPerlVariableDeclarationLexicalImpl(Perl5: VARIABLE_DECLARATION_LEXICAL)
                PsiElement(Perl5: my)('my')
                PsiPerlVariableDeclarationElementImpl(VARIABLE_DECLARATION_ELEMENT)
                  PsiPerlScalarVariableImpl(Perl5: SCALAR_VARIABLE)
                    PsiElement(Perl5: $$)('$')
                    PerlVariableNameElementImpl(Perl5: SCALAR_NAME)('name')
              PsiElement(Perl5: =)('=')
              PsiPerlArrayShiftExprImpl(Perl5: ARRAY_SHIFT_EXPR)
                PsiElement(Perl5: shift)('shift')
            PsiElement(Perl5: ;)(';')
          PsiComment(Mojolicious: %>)('=%>')
          PsiComment(Mojolicious: MOJO_TEMPLATE_BLOCK_HTML)('Hello')
          PsiComment(Mojolicious: <%=)('<%=')
          PsiPerlStatementImpl(Perl5: STATEMENT)
            PsiPerlScalarVariableImpl(Perl5: SCALAR_VARIABLE)
              PsiElement(Perl5: $$)('$')
              PerlVariableNameElementImpl(Perl5: SCALAR_NAME)('name')
            PsiElement(Mojolicious: %>)('%>')
          PsiComment(Mojolicious: MOJO_TEMPLATE_BLOCK_HTML)('.')
          PsiComment(Mojolicious: <%)('<%')
    PsiElement(Mojolicious: end)('end')
  PsiComment(Mojolicious: %>)('%>')
  PsiComment(Mojolicious: <%=)('<%=')
  PsiPerlStatementImpl(Perl5: STATEMENT)
    PsiPerlDerefExprImpl(Perl5: DEREF_EXPR)
      PsiPerlScalarVariableImpl(Perl5: SCALAR_VARIABLE)
        PsiElement(Perl5: $$)('$')
        PerlVariableNameElementImpl(Perl5: SCALAR_NAME)('block')
      PsiElement(Perl5: ->)('->')
      PsiPerlParenthesisedCallArgumentsImpl(Perl5: PARENTHESISED_CALL_ARGUMENTS)
        PsiElement(Perl5: ()('(')
        PsiPerlStringSqImpl(Perl5: STRING_SQ)
          PsiElement(Perl5: QUOTE_SINGLE_OPEN)(''')
          PerlStringContentElementImpl(Perl5: STRING_CONTENT)('Baerbel')
          PsiElement(Perl5: QUOTE_SINGLE_CLOSE)(''')
        PsiElement(Perl5: ))(')')
    PsiElement(Mojolicious: %>)('%>')
  PsiComment(Mojolicious: MOJO_TEMPLATE_BLOCK_HTML)('spaces should be after')
  PsiComment(Mojolicious: <%=)('<%=')
  PsiPerlStatementImpl(Perl5: STATEMENT)
    PsiPerlDerefExprImpl(Perl5: DEREF_EXPR)
      PsiPerlScalarVariableImpl(Perl5: SCALAR_VARIABLE)
        PsiElement(Perl5: $$)('$')
        PerlVariableNameElementImpl(Perl5: SCALAR_NAME)('block')
      PsiElement(Perl5: ->)('->')
      PsiPerlParenthesisedCallArgumentsImpl(Perl5: PARENTHESISED_CALL_ARGUMENTS)
        PsiElement(Perl5: ()('(')
        PsiPerlStringSqImpl(Perl5: STRING_SQ)
          PsiElement(Perl5: QUOTE_SINGLE_OPEN)(''')
          PerlStringContentElementImpl(Perl5: STRING_CONTENT)('Wolfgang')
          PsiElement(Perl5: QUOTE_SINGLE_CLOSE)(''')
        PsiElement(Perl5: ))(')')
    PsiElement(Mojolicious: %>)('%>')
  PsiComment(Mojolicious: MOJO_TEMPLATE_BLOCK_HTML)('non-spaces\n\nspaces should be before\n\nsome %\n\n< unparen >')
  PsiComment(Mojolicious: <%=)('<%=')
  PsiPerlStatementImpl(Perl5: STATEMENT)
    PsiPerlDerefExprImpl(Perl5: DEREF_EXPR)
      PsiPerlScalarVariableImpl(Perl5: SCALAR_VARIABLE)
        PsiElement(Perl5: $$)('$')
        PerlVariableNameElementImpl(Perl5: SCALAR_NAME)('block')
      PsiElement(Perl5: ->)('->')
      PsiPerlParenthesisedCallArgumentsImpl(Perl5: PARENTHESISED_CALL_ARGUMENTS)
        PsiElement(Perl5: ()('(')
        PsiPerlStringSqImpl(Perl5: STRING_SQ)
          PsiElement(Perl5: QUOTE_SINGLE_OPEN)(''')
          PerlStringContentElementImpl(Perl5: STRING_CONTENT)('Wolfgang')
          PsiElement(Perl5: QUOTE_SINGLE_CLOSE)(''')
        PsiElement(Perl5: ))(')')
    PsiElement(Mojolicious: %>)('%>')
  PsiComment(Mojolicious: %)('%')
  PsiPerlStatementImpl(Perl5: STATEMENT)
    PsiPerlAssignExprImpl(Perl5: ASSIGN_EXPR)
      PsiPerlVariableDeclarationLexicalImpl(Perl5: VARIABLE_DECLARATION_LEXICAL)
        PsiElement(Perl5: my)('my')
        PsiPerlVariableDeclarationElementImpl(VARIABLE_DECLARATION_ELEMENT)
          PsiPerlScalarVariableImpl(Perl5: SCALAR_VARIABLE)
            PsiElement(Perl5: $$)('$')
            PerlVariableNameElementImpl(Perl5: SCALAR_NAME)('block')
      PsiElement(Perl5: =)('=')
      PsiPerlSubExprImpl(Perl5: SUB_EXPR)
        PsiElement(Mojolicious: begin)('begin')
        PsiPerlBlockBracelessImpl(Perl5: BLOCK_BRACELESS)
          PsiComment(Mojolicious: <%)('<%')
          PsiPerlStatementImpl(Perl5: STATEMENT)
            PsiPerlPrintExprImpl(Perl5: PRINT_EXPR)
              PsiElement(Perl5: say)('say')
              PsiPerlCallArgumentsImpl(Perl5: CALL_ARGUMENTS)
                PsiPerlStringSqImpl(Perl5: STRING_SQ)
                  PsiElement(Perl5: QUOTE_SINGLE_OPEN)(''')
                  PerlStringContentElementImpl(Perl5: STRING_CONTENT)('hi')
                  PsiElement(Perl5: QUOTE_SINGLE_CLOSE)(''')
            PsiElement(Perl5: ;)(';')
          PsiComment(Mojolicious: %>)('%>')
          PsiComment(Mojolicious: %)('%')
          PsiPerlStatementImpl(Perl5: STATEMENT)
            PsiPerlAssignExprImpl(Perl5: ASSIGN_EXPR)
              PsiPerlVariableDeclarationLexicalImpl(Perl5: VARIABLE_DECLARATION_LEXICAL)
                PsiElement(Perl5: my)('my')
                PsiPerlVariableDeclarationElementImpl(VARIABLE_DECLARATION_ELEMENT)
                  PsiPerlScalarVariableImpl(Perl5: SCALAR_VARIABLE)
                    PsiElement(Perl5: $$)('$')
                    PerlVariableNameElementImpl(Perl5: SCALAR_NAME)('name')
              PsiElement(Perl5: =)('=')
              PsiPerlArrayShiftExprImpl(Perl5: ARRAY_SHIFT_EXPR)
                PsiElement(Perl5: shift)('shift')
            PsiElement(Perl5: ;)(';')
          PsiComment(Mojolicious: MOJO_TEMPLATE_BLOCK_HTML)('Hello')
          PsiComment(Mojolicious: <%=)('<%=')
          PsiPerlStatementImpl(Perl5: STATEMENT)
            PsiPerlScalarVariableImpl(Perl5: SCALAR_VARIABLE)
              PsiElement(Perl5: $$)('$')
              PerlVariableNameElementImpl(Perl5: SCALAR_NAME)('name')
            PsiElement(Mojolicious: %>)('%>')
          PsiComment(Mojolicious: MOJO_TEMPLATE_BLOCK_HTML)('.')
          PsiComment(Mojolicious: %)('%')
    PsiElement(Mojolicious: end)('end')
  PsiComment(Mojolicious: %)('%=')
  PsiPerlStatementImpl(Perl5: STATEMENT)
    PsiPerlDerefExprImpl(Perl5: DEREF_EXPR)
      PsiPerlScalarVariableImpl(Perl5: SCALAR_VARIABLE)
        PsiElement(Perl5: $$)('$')
        PerlVariableNameElementImpl(Perl5: SCALAR_NAME)('block')
      PsiElement(Perl5: ->)('->')
      PsiPerlParenthesisedCallArgumentsImpl(Perl5: PARENTHESISED_CALL_ARGUMENTS)
        PsiElement(Perl5: ()('(')
        PsiPerlStringSqImpl(Perl5: STRING_SQ)
          PsiElement(Perl5: QUOTE_SINGLE_OPEN)(''')
          PerlStringContentElementImpl(Perl5: STRING_CONTENT)('Baerbel')
          PsiElement(Perl5: QUOTE_SINGLE_CLOSE)(''')
        PsiElement(Perl5: ))(')')
    PsiElement(Perl5: ;)('\n')
  PsiComment(Mojolicious: %)('%=')
  PsiPerlStatementImpl(Perl5: STATEMENT)
    PsiPerlDerefExprImpl(Perl5: DEREF_EXPR)
      PsiPerlScalarVariableImpl(Perl5: SCALAR_VARIABLE)
        PsiElement(Perl5: $$)('$')
        PerlVariableNameElementImpl(Perl5: SCALAR_NAME)('block')
      PsiElement(Perl5: ->)('->')
      PsiPerlParenthesisedCallArgumentsImpl(Perl5: PARENTHESISED_CALL_ARGUMENTS)
        PsiElement(Perl5: ()('(')
        PsiPerlStringSqImpl(Perl5: STRING_SQ)
          PsiElement(Perl5: QUOTE_SINGLE_OPEN)(''')
          PerlStringContentElementImpl(Perl5: STRING_CONTENT)('Wolfgang')
          PsiElement(Perl5: QUOTE_SINGLE_CLOSE)(''')
        PsiElement(Perl5: ))(')')
    PsiElement(Perl5: ;)('\n')
  PsiComment(Mojolicious: %)('%')
  PsiPerlStatementImpl(Perl5: STATEMENT)
    PsiPerlAssignExprImpl(Perl5: ASSIGN_EXPR)
      PsiPerlVariableDeclarationLexicalImpl(Perl5: VARIABLE_DECLARATION_LEXICAL)
        PsiElement(Perl5: my)('my')
        PsiElement(Perl5: ()('(')
        PsiPerlVariableDeclarationElementImpl(VARIABLE_DECLARATION_ELEMENT)
          PsiPerlScalarVariableImpl(Perl5: SCALAR_VARIABLE)
            PsiElement(Perl5: $$)('$')
            PerlVariableNameElementImpl(Perl5: SCALAR_NAME)('foo')
        PsiElement(Perl5: ,)(',')
        PsiPerlVariableDeclarationElementImpl(VARIABLE_DECLARATION_ELEMENT)
          PsiPerlScalarVariableImpl(Perl5: SCALAR_VARIABLE)
            PsiElement(Perl5: $$)('$')
            PerlVariableNameElementImpl(Perl5: SCALAR_NAME)('bar')
        PsiElement(Perl5: ))(')')
      PsiElement(Perl5: =)('=')
      PsiPerlArrayVariableImpl(Perl5: ARRAY_VARIABLE)
        PsiElement(Perl5: $@)('@')
        PerlVariableNameElementImpl(Perl5: ARRAY_NAME)('_')
    PsiElement(Perl5: ;)(';')
  PsiComment(Mojolicious: %)('%')
  PsiPerlStatementImpl(Perl5: STATEMENT)
    PsiPerlAssignExprImpl(Perl5: ASSIGN_EXPR)
      PsiPerlVariableDeclarationLexicalImpl(Perl5: VARIABLE_DECLARATION_LEXICAL)
        PsiElement(Perl5: my)('my')
        PsiPerlVariableDeclarationElementImpl(VARIABLE_DECLARATION_ELEMENT)
          PsiPerlScalarVariableImpl(Perl5: SCALAR_VARIABLE)
            PsiElement(Perl5: $$)('$')
            PerlVariableNameElementImpl(Perl5: SCALAR_NAME)('x')
      PsiElement(Perl5: =)('=')
      PsiPerlArrayShiftExprImpl(Perl5: ARRAY_SHIFT_EXPR)
        PsiElement(Perl5: shift)('shift')
    PsiElement(Perl5: ;)(';')
  PsiComment(Mojolicious: MOJO_TEMPLATE_BLOCK_HTML)('test 123')
  PsiComment(Mojolicious: <%=)('<%=')
  PsiPerlStatementImpl(Perl5: STATEMENT)
    PsiPerlScalarVariableImpl(Perl5: SCALAR_VARIABLE)
      PsiElement(Perl5: $$)('$')
      PerlVariableNameElementImpl(Perl5: SCALAR_NAME)('foo')
    PsiElement(Mojolicious: %>)('%>')
  PsiComment(Mojolicious: <%)('<%')
  PsiPerlStatementImpl(Perl5: STATEMENT)
    PsiPerlAssignExprImpl(Perl5: ASSIGN_EXPR)
      PsiPerlVariableDeclarationLexicalImpl(Perl5: VARIABLE_DECLARATION_LEXICAL)
        PsiElement(Perl5: my)('my')
        PsiPerlVariableDeclarationElementImpl(VARIABLE_DECLARATION_ELEMENT)
          PsiPerlScalarVariableImpl(Perl5: SCALAR_VARIABLE)
            PsiElement(Perl5: $$)('$')
            PerlVariableNameElementImpl(Perl5: SCALAR_NAME)('block')
      PsiElement(Perl5: =)('=')
      PsiPerlSubExprImpl(Perl5: SUB_EXPR)
        PsiElement(Mojolicious: begin)('begin')
        PsiPerlBlockBracelessImpl(Perl5: BLOCK_BRACELESS)
          PsiComment(Mojolicious: %>)('%>')
          PsiComment(Mojolicious: MOJO_TEMPLATE_BLOCK_HTML)('Some data!')
          PsiComment(Mojolicious: <%)('<%')
    PsiElement(Mojolicious: end)('end')
  PsiComment(Mojolicious: %>)('%>')
  PsiComment(Mojolicious: <%=)('<%==')
  PsiPerlStatementImpl(Perl5: STATEMENT)
    PsiPerlScalarVariableImpl(Perl5: SCALAR_VARIABLE)
      PsiElement(Perl5: $$)('$')
      PerlVariableNameElementImpl(Perl5: SCALAR_NAME)('foo')
    PsiElement(Mojolicious: %>)('%>')
  PsiComment(Mojolicious: <%=)('<%=')
  PsiPerlStatementImpl(Perl5: STATEMENT)
    PsiPerlScalarVariableImpl(Perl5: SCALAR_VARIABLE)
      PsiElement(Perl5: $$)('$')
      PerlVariableNameElementImpl(Perl5: SCALAR_NAME)('foo')
    PsiElement(Mojolicious: %>)('%>')
  PsiComment(Mojolicious: <%%)('<%%')
  PsiComment(Mojolicious: MOJO_TEMPLATE_BLOCK_HTML)(' my $foo = 23; %>')
  PsiComment(Mojolicious: <%)('<%')
  PsiPerlStatementImpl(Perl5: STATEMENT)
    PsiPerlPrintExprImpl(Perl5: PRINT_EXPR)
      PsiElement(Perl5: say)('say')
      PsiPerlCallArgumentsImpl(Perl5: CALL_ARGUMENTS)
        PsiPerlHeredocOpenerImpl(Perl5: HEREDOC_OPENER)
          PsiElement(Perl5: heredoc<<)('<<')
          PsiPerlStringBareImpl(Perl5: STRING_BARE)
            PerlStringContentElementImpl(Perl5: STRING_CONTENT)('EOM')
    PsiElement(Perl5: ;)(';')
  PerlHeredocElementImpl(Perl5: HEREDOC_QQ)
    PerlStringContentElementImpl(Perl5: STRING_CONTENT_QQ)('    this is a text\n')
  PsiComment(Perl5: HEREDOC_END)('EOM')
  PsiElement(Perl5: POD)('=pod\n\nSome documentation here\n\n=cut')
  PsiComment(Mojolicious: %>)('%>')
--------------------------------------------------------------------------------
Subtree: Perl5 POD (Perl5 POD)
POD file
  PsiElement(Perl5 POD: POD_OUTER)('% use Time::Piece;\n<!DOCTYPE html>\n<html>\n  <head><title>Simple</title></head>\n% my $now = localtime;\n  <body>Time: <%= $now->hms %></body>\n</html>\n\n<html>\n  <head><title><%= $title #this is a titile %></title></head>\n  <body>\n    test 123\n    foo <% my $i = $num + 2; %>\n% for (1 .. 23) {\n    * some text <%= $i++ %>\n% }\n  </body>\n</html>\n\n% use Mojo::ByteStream 'b';\n<%= b('<div>excluded!</div>') %>\n\n<% for (1 .. 3) { # some comment is accepatble %>\n    <%= 'Trim all whitespace characters around this expression' =%>\n<% } %>\n\nThis is <%= 1 + 1 %> a\\nsingle line\n\nThis will <%= 1 + 1 %> result\\\nin multiple\\\nlines\n\n<% my $block = begin %>\n    <% my $name = shift; =%>\n  Hello <%= $name %>.\n<% end %>\n<%= $block->('Baerbel') %>spaces should be after\n\n\n\n<%= $block->('Wolfgang') %>\n\n\nnon-spaces\n\nspaces should be before\n\nsome %\n\n< unparen >\n\n<%= $block->('Wolfgang') %>\n% my $block = begin\n<% say 'hi'; %>\n% my $name = shift;\n  Hello <%= $name %>.\n% end\n        %= $block->('Baerbel')\n%= $block->('Wolfgang')\n\n% my ($foo, $bar) = @_;\n% my $x = shift;\ntest 123 <%= $foo %>\n\n<% my $block = begin %>\n  Some data!\n<% end %>\n\n        <%== $foo %>\n\n<%= $foo %>\n\n<%% my $foo = 23; %>\n\n<%\n    say <<EOM;\n    this is a text\nEOM\n\n')
  PsiPodSectionImpl(Perl5 POD: POD_SECTION)
    PsiElement(Perl5 POD: =pod)('=pod')
  PsiElement(Perl5 POD: NL)('\n')
  PsiPodParagraphImpl(Perl5 POD: POD_PARAGRAPH)
    PodIdentifierImpl(Perl5 POD: identifier)('Some')
    PodIdentifierImpl(Perl5 POD: identifier)('documentation')
    PodIdentifierImpl(Perl5 POD: identifier)('here')
    PsiElement(Perl5 POD: NL)('\n')
  PsiCutSectionImpl(Perl5 POD: CUT_SECTION)
    PsiElement(Perl5 POD: =cut)('=cut')
    PsiSectionTitleImpl(Perl5 POD: SECTION_TITLE)
      <empty list>
  PsiElement(Perl5 POD: POD_OUTER)('\n\n\n%>')
--------------------------------------------------------------------------------
