Reparsing block
----------
Element(Perl5: COMPILE_REGEX)
----------
qr/asdfasdf/
----------
After typing
----------
qr/asdfasdfedit<caret>/;
----------
Psi structure
----------
Perl5
  PsiPerlStatementImpl(Perl5: STATEMENT)
    PsiPerlCompileRegexImpl(Perl5: COMPILE_REGEX)
      PsiElement(Perl5: qr)('qr')
      PsiElement(Perl5: r{)('/')
      PsiPerlPerlRegexImpl(Perl5: PERL_REGEX)
        PsiElement(Perl5: regex)('asdfasdfedit')
      PsiElement(Perl5: r})('/')
    PsiElement(Perl5: ;)(';')
