Reparsing block
----------
Element(Perl5: HASH_INDEX)
----------
{index}
----------
After typing
----------
{
  say 'hi';
  say $hash{indexsome_thing<caret>};
}
----------
Psi structure
----------
Perl5
  PsiPerlBlockCompoundImpl(Perl5: BLOCK_COMPOUND)
    PsiPerlBlockImpl(Perl5: BLOCK)
      PsiElement(Perl5: {)('{')
      PsiWhiteSpace('\n  ')
      PsiPerlStatementImpl(Perl5: STATEMENT)
        PsiPerlPrintExprImpl(Perl5: PRINT_EXPR)
          PsiElement(Perl5: say)('say')
          PsiWhiteSpace(' ')
          PsiPerlCallArgumentsImpl(Perl5: CALL_ARGUMENTS)
            PsiPerlStringSqImpl(Perl5: STRING_SQ)
              PsiElement(Perl5: QUOTE_SINGLE_OPEN)(''')
              PerlStringContentElementImpl(Perl5: STRING_CONTENT)('hi')
              PsiElement(Perl5: QUOTE_SINGLE_CLOSE)(''')
        PsiElement(Perl5: ;)(';')
      PsiWhiteSpace('\n  ')
      PsiPerlStatementImpl(Perl5: STATEMENT)
        PsiPerlPrintExprImpl(Perl5: PRINT_EXPR)
          PsiElement(Perl5: say)('say')
          PsiWhiteSpace(' ')
          PsiPerlCallArgumentsImpl(Perl5: CALL_ARGUMENTS)
            PsiPerlHashElementImpl(Perl5: HASH_ELEMENT)
              PsiPerlScalarVariableImpl(Perl5: SCALAR_VARIABLE)
                PsiElement(Perl5: $$)('$')
                PerlVariableNameElementImpl(Perl5: SCALAR_NAME)('hash')
              PsiPerlHashIndexImpl(Perl5: HASH_INDEX)
                PsiElement(Perl5: {)('{')
                PsiPerlStringBareImpl(Perl5: STRING_BARE)
                  PerlStringContentElementImpl(Perl5: STRING_CONTENT)('indexsome_thing')
                PsiElement(Perl5: })('}')
        PsiElement(Perl5: ;)(';')
      PsiWhiteSpace('\n')
      PsiElement(Perl5: })('}')
